<svg xmlns="http://www.w3.org/2000/svg" width="17.978" height="20.477" viewBox="0 0 17.978 20.477">
  <path id="Path_86" data-name="Path 86" d="M113.356,5.812h11.008A3.243,3.243,0,0,1,127.6,9.048V22.555a3.243,3.243,0,0,1-3.235,3.235H113.356a3.243,3.243,0,0,1-3.235-3.235V9.048a3.243,3.243,0,0,1,3.235-3.235Zm6.308,13.616a.468.468,0,1,1,0-.936h4.552a.468.468,0,0,1,0,.936Zm-2.291,2.558a.468.468,0,1,1,0-.936h6.842a.468.468,0,0,1,0,.936Zm-4.257-1.936a.467.467,0,1,1,.779-.516l.92,1.389,1.338-3.134a.467.467,0,0,1,.859.366l-1.675,3.924a.467.467,0,0,1-.823.083l-1.4-2.113Zm6.548-6.727a.468.468,0,0,1,0-.936h4.552a.468.468,0,0,1,0,.936Zm-2.291,2.559a.468.468,0,0,1,0-.936h6.842a.468.468,0,1,1,0,.936Zm-4.257-1.936a.467.467,0,1,1,.779-.516l.92,1.389,1.338-3.134a.467.467,0,1,1,.859.366l-1.675,3.924a.467.467,0,0,1-.823.083l-1.4-2.112Zm10.527-7.2v.365a2.23,2.23,0,0,1-2.224,2.224H116.3a2.23,2.23,0,0,1-2.224-2.224V6.749h-.722a2.307,2.307,0,0,0-2.3,2.3V22.555a2.307,2.307,0,0,0,2.3,2.3h11.008a2.307,2.307,0,0,0,2.3-2.3V9.048a2.307,2.307,0,0,0-2.3-2.3h-.722Zm-8.628,0v.365A1.291,1.291,0,0,0,116.3,8.4h5.117a1.291,1.291,0,0,0,1.287-1.287V6.749Z" transform="translate(-109.871 -5.563)" fill="#757575" stroke="#707070" stroke-width="0.5"/>
</svg>
